date	Tmax	Tmin	Tavg	wind	Air_RH	Soil_RH	SW_Rad	LW_Rad	AirEmissiv

1/1/2000	4.07	-4.62	-0.28	2.38	0.90	1.00	3.81492252	25.9089329119933	0.6852800681468
1/2/2000	-0.91	-7.04	-3.98	3.15	0.80	1.00	7.39966968	24.5322633501138	0.6668254183068
1/3/2000	8.57	-3.68	2.44	2.92	0.85	1.00	10.20728232	26.9569374104661	0.6990023119088
1/4/2000	5.57	-0.95	2.31	3.09	0.96	1.00	3.50910144	26.9035799454368	0.6983101808783
1/5/2000	1.51	-2.99	-0.74	5.91	0.81	1.00	10.74376728	25.733000351031	0.6829494348447
1/6/2000	7.75	-2.41	2.67	4.51	0.58	1.00	9.88434144	27.0460428420293	0.7001566254783
1/7/2000	7.41	-2.57	2.42	1.40	0.73	1.00	10.89244944	26.9491145086892	0.6989008793328
1/8/2000	5.59	-1.98	1.81	0.86	0.90	1.00	5.05502496	26.7099730453389	0.6957930106647
1/9/2000	5.24	-2.32	1.46	2.07	0.89	1.00	8.15868396	26.5740650546947	0.6940205560688
1/10/2000	2.59	1.01	1.80	6.98	0.99	1.00	1.44945972	26.7064767467579	0.6957474700023
1/11/2000	2.24	1.42	1.83	8.92	0.99	1.00	0.56796228	26.7181324103747	0.6958992780063
1/12/2000	1.13	-3.88	-1.37	6.50	0.95	1.00	6.69330576	25.4954419360997	0.6797897457575
1/13/2000	4.04	-0.39	1.83	6.28	0.99	1.00	2.0469924	26.7169666723609	0.6958840964607
1/14/2000	6.07	2.45	4.26	6.88	0.96	1.00	7.78326948	27.6753829443252	0.7082558273543
1/15/2000	4.19	2.37	3.28	4.66	0.99	1.00	1.4842476	27.2868427818997	0.7032665825487
1/16/2000	7.28	-1.55	2.86	7.38	0.90	1.00	6.52956768	27.1218086170883	0.7011366359375
1/17/2000	5.27	-0.90	2.18	4.24	0.96	1.00	5.12314344	26.8559575607646	0.6976918630647
1/18/2000	7.83	2.64	5.23	1.88	0.96	1.00	3.67234848	28.065436922732	0.7132294064988
1/19/2000	8.28	4.72	6.50	3.37	0.99	1.00	2.73528792	28.5795733222868	0.7197326547623
1/20/2000	6.60	3.77	5.19	5.41	0.99	1.00	1.40793336	28.0462902388973	0.7129860768143
1/21/2000	3.33	-2.69	0.32	3.85	0.97	1.00	3.307995	26.1358004149971	0.6882738025487
1/22/2000	5.37	-0.66	2.35	3.45	0.89	1.00	8.73194148	26.9215523584519	0.6985433882007
1/23/2000	4.53	1.49	3.01	2.74	0.95	1.00	1.94004792	27.1790325292461	0.7018759052288
1/24/2000	4.83	2.08	3.46	3.37	0.99	1.00	1.07120304	27.356191400172	0.7041596799708
1/25/2000	6.19	1.81	4.00	4.72	0.91	1.00	11.7000702	27.5725892738463	0.7069392792575
1/26/2000	7.68	-1.87	2.91	2.65	0.83	1.00	13.48674516	27.139890248041	0.7013703147047
1/27/2000	5.38	-1.05	2.16	3.99	0.72	1.00	13.74730236	26.8469866580856	0.6975753256343
1/28/2000	8.61	-2.30	3.16	4.59	0.58	1.00	13.98481164	27.2377267584216	0.7026333613308
1/29/2000	6.89	-2.40	2.24	1.69	0.76	1.00	12.14890776	26.8795656700865	0.6979984536512
1/30/2000	5.03	0.15	2.59	4.73	0.94	1.00	2.59483176	27.0146839214909	0.6997506044543
1/31/2000	6.67	-4.22	1.23	2.42	0.77	1.00	14.36787648	26.4849707553326	0.6928561653575
2/1/2000	8.36	-1.78	3.29	1.32	1.00	1.00	12.47426028	27.2896062963272	0.7033021938167
2/2/2000	10.53	-0.89	4.82	1.14	0.93	1.00	14.09420628	27.8988876695602	0.7111099921212
2/3/2000	8.99	0.05	4.52	1.38	0.82	1.00	13.17882708	27.778663815096	0.7095761552412
2/4/2000	5.46	0.46	2.96	4.74	0.97	1.00	5.60743884	27.1605379379891	0.7016370608732
2/5/2000	3.27	1.16	2.22	5.89	0.99	1.00	5.60398716	26.8686376689678	0.6978565521152
2/6/2000	8.88	-2.10	3.39	1.95	0.86	1.00	11.16744444	27.3312818340591	0.7038390156912
2/7/2000	9.10	-0.96	4.07	1.42	0.77	1.00	14.52195108	27.5994552607447	0.70728360668
2/8/2000	7.20	-0.72	3.24	2.79	0.93	1.00	4.58620128	27.2716472041053	0.7030707366908
2/9/2000	4.41	1.44	2.93	3.51	0.99	1.00	4.09399884	27.1463782530335	0.70145414375
2/10/2000	2.38	1.21	1.79	4.59	0.99	1.00	3.74500656	26.7045345069795	0.6957221702783
2/11/2000	6.75	-2.56	2.09	2.02	0.89	1.00	13.39559604	26.8198925863512	0.6972232390652
2/12/2000	7.09	-2.38	2.35	2.31	0.85	1.00	16.3819368	26.922724785037	0.6985585987263
2/13/2000	5.86	-1.17	2.34	5.46	0.88	1.00	12.4121322	26.9182306910763	0.6985002926108
2/14/2000	1.86	-1.09	0.39	9.18	0.99	1.00	6.41549592	26.1612270633033	0.68860852047
2/15/2000	2.24	0.66	1.45	8.01	0.99	1.00	3.65023908	26.5701951344608	0.6939700199168
2/16/2000	4.34	-1.43	1.45	2.53	0.90	1.00	8.32663692	26.5725170358762	0.6940003413872
2/17/2000	3.56	-1.96	0.80	2.35	0.89	1.00	15.6499272	26.3199398159833	0.6906941584092
2/18/2000	5.98	-2.19	1.90	4.30	0.76	1.00	17.80279056	26.7435938673575	0.69623078303
2/19/2000	8.58	-3.30	2.64	2.57	0.72	1.00	16.80417648	27.0350641160273	0.7000145047247
2/20/2000	7.16	1.53	4.34	2.84	0.92	1.00	5.9397822	27.7089125903073	0.7086847352183
2/21/2000	3.62	-1.16	1.23	2.88	0.96	1.00	11.40326208	26.4857428429779	0.6928662643263
2/22/2000	1.52	-0.15	0.69	5.60	0.98	1.00	5.02653744	26.2769319755946	0.6901296166748
2/23/2000	0.95	-3.71	-1.38	6.30	0.91	1.00	15.62089176	25.4935661333572	0.6797647378575
2/24/2000	-0.87	-5.35	-3.11	3.35	0.91	1.00	12.66819048	24.8505419123509	0.6711371338688
2/25/2000	3.98	-3.61	0.18	2.69	0.88	1.00	16.48932336	26.0846210696394	0.6875995805303
2/26/2000	2.78	-0.10	1.34	7.22	0.98	1.00	4.91474808	26.5290066999983	0.6934319240447
2/27/2000	2.88	-0.23	1.33	6.75	0.98	1.00	7.3795518	26.522822906253	0.6933511013823
2/28/2000	4.88	-2.84	1.02	5.11	0.89	1.00	7.3795518	26.4049583434355	0.69180879728
2/29/2000	5.88	-4.14	0.87	4.29	0.85	1.00	7.3795518	26.3461735930967	0.691038289207575
